…
something is weird since Central park and Molokai are recording data
differently since their data points are appearing in bands where as
Waterhole are more scattered

\##group_by()

``` r
weather_df %>% 
  group_by(name)
```

    ## # A tibble: 2,190 × 7
    ## # Groups:   name [3]
    ##    name           id          date        prcp  tmax  tmin month     
    ##    <chr>          <chr>       <date>     <dbl> <dbl> <dbl> <date>    
    ##  1 CentralPark_NY USW00094728 2021-01-01   157   4.4   0.6 2021-01-01
    ##  2 CentralPark_NY USW00094728 2021-01-02    13  10.6   2.2 2021-01-01
    ##  3 CentralPark_NY USW00094728 2021-01-03    56   3.3   1.1 2021-01-01
    ##  4 CentralPark_NY USW00094728 2021-01-04     5   6.1   1.7 2021-01-01
    ##  5 CentralPark_NY USW00094728 2021-01-05     0   5.6   2.2 2021-01-01
    ##  6 CentralPark_NY USW00094728 2021-01-06     0   5     1.1 2021-01-01
    ##  7 CentralPark_NY USW00094728 2021-01-07     0   5    -1   2021-01-01
    ##  8 CentralPark_NY USW00094728 2021-01-08     0   2.8  -2.7 2021-01-01
    ##  9 CentralPark_NY USW00094728 2021-01-09     0   2.8  -4.3 2021-01-01
    ## 10 CentralPark_NY USW00094728 2021-01-10     0   5    -1.6 2021-01-01
    ## # ℹ 2,180 more rows

``` r
weather_df %>% 
  group_by(month)
```

    ## # A tibble: 2,190 × 7
    ## # Groups:   month [24]
    ##    name           id          date        prcp  tmax  tmin month     
    ##    <chr>          <chr>       <date>     <dbl> <dbl> <dbl> <date>    
    ##  1 CentralPark_NY USW00094728 2021-01-01   157   4.4   0.6 2021-01-01
    ##  2 CentralPark_NY USW00094728 2021-01-02    13  10.6   2.2 2021-01-01
    ##  3 CentralPark_NY USW00094728 2021-01-03    56   3.3   1.1 2021-01-01
    ##  4 CentralPark_NY USW00094728 2021-01-04     5   6.1   1.7 2021-01-01
    ##  5 CentralPark_NY USW00094728 2021-01-05     0   5.6   2.2 2021-01-01
    ##  6 CentralPark_NY USW00094728 2021-01-06     0   5     1.1 2021-01-01
    ##  7 CentralPark_NY USW00094728 2021-01-07     0   5    -1   2021-01-01
    ##  8 CentralPark_NY USW00094728 2021-01-08     0   2.8  -2.7 2021-01-01
    ##  9 CentralPark_NY USW00094728 2021-01-09     0   2.8  -4.3 2021-01-01
    ## 10 CentralPark_NY USW00094728 2021-01-10     0   5    -1.6 2021-01-01
    ## # ℹ 2,180 more rows
…
    ## # A tibble: 3 × 2
    ##   name           n_obs
    ##   <chr>          <int>
    ## 1 CentralPark_NY   730
    ## 2 Molokai_HI       730
    ## 3 Waterhole_WA     730

``` r
weather_df %>% 
  group_by(month) %>% 
  summarise(n_obs = n())
```

    ## # A tibble: 24 × 2
    ##    month      n_obs
    ##    <date>     <int>
    ##  1 2021-01-01    93
    ##  2 2021-02-01    84
    ##  3 2021-03-01    93
    ##  4 2021-04-01    90
    ##  5 2021-05-01    93
    ##  6 2021-06-01    90
    ##  7 2021-07-01    93
    ##  8 2021-08-01    93
    ##  9 2021-09-01    90
    ## 10 2021-10-01    93
    ## # ℹ 14 more rows

the number of distinct observations

``` r
weather_df %>% 
  group_by(month) %>% 
  summarise(
    n_obs = n(),
    n_dist = n_distinct(month))
```

    ## # A tibble: 24 × 3
    ##    month      n_obs n_dist
    ##    <date>     <int>  <int>
    ##  1 2021-01-01    93      1
    ##  2 2021-02-01    84      1
    ##  3 2021-03-01    93      1
    ##  4 2021-04-01    90      1
    ##  5 2021-05-01    93      1
    ##  6 2021-06-01    90      1
    ##  7 2021-07-01    93      1
    ##  8 2021-08-01    93      1
    ##  9 2021-09-01    90      1
    ## 10 2021-10-01    93      1
    ## # ℹ 14 more rows

``` r
weather_df %>% 
  group_by(name, month) %>% 
  summarise(
    n_obs = n())
```

    ## `summarise()` has grouped output by 'name'. You can override using the
    ## `.groups` argument.

    ## # A tibble: 72 × 3
    ## # Groups:   name [3]
    ##    name           month      n_obs
    ##    <chr>          <date>     <int>
    ##  1 CentralPark_NY 2021-01-01    31
    ##  2 CentralPark_NY 2021-02-01    28
    ##  3 CentralPark_NY 2021-03-01    31
    ##  4 CentralPark_NY 2021-04-01    30
    ##  5 CentralPark_NY 2021-05-01    31
    ##  6 CentralPark_NY 2021-06-01    30
    ##  7 CentralPark_NY 2021-07-01    31
    ##  8 CentralPark_NY 2021-08-01    31
    ##  9 CentralPark_NY 2021-09-01    30
    ## 10 CentralPark_NY 2021-10-01    31
    ## # ℹ 62 more rows
…
can print the data frames but can also format better for readers

``` r
weather_df %>% 
  group_by(name, month) %>% 
  summarise(
    mean_tmax = mean(tmax, na.rm = TRUE)
  )
```

    ## `summarise()` has grouped output by 'name'. You can override using the
    ## `.groups` argument.

    ## # A tibble: 72 × 3
    ## # Groups:   name [3]
    ##    name           month      mean_tmax
    ##    <chr>          <date>         <dbl>
    ##  1 CentralPark_NY 2021-01-01      4.27
    ##  2 CentralPark_NY 2021-02-01      3.87
    ##  3 CentralPark_NY 2021-03-01     12.3 
    ##  4 CentralPark_NY 2021-04-01     17.6 
    ##  5 CentralPark_NY 2021-05-01     22.1 
    ##  6 CentralPark_NY 2021-06-01     28.1 
    ##  7 CentralPark_NY 2021-07-01     28.4 
    ##  8 CentralPark_NY 2021-08-01     28.8 
    ##  9 CentralPark_NY 2021-09-01     24.8 
    ## 10 CentralPark_NY 2021-10-01     19.9 
    ## # ℹ 62 more rows
…
Computing groups and summaries are important in getting to know the
dataset

Other things that we can do ontop of the group

\##grouped mutate

``` r
weather_df %>% 
  mutate(mean_tmax = mean(tmax, na.rm = TRUE))
```

    ## # A tibble: 2,190 × 8
    ##    name           id          date        prcp  tmax  tmin month      mean_tmax
    ##    <chr>          <chr>       <date>     <dbl> <dbl> <dbl> <date>         <dbl>
    ##  1 CentralPark_NY USW00094728 2021-01-01   157   4.4   0.6 2021-01-01      17.9
    ##  2 CentralPark_NY USW00094728 2021-01-02    13  10.6   2.2 2021-01-01      17.9
    ##  3 CentralPark_NY USW00094728 2021-01-03    56   3.3   1.1 2021-01-01      17.9
    ##  4 CentralPark_NY USW00094728 2021-01-04     5   6.1   1.7 2021-01-01      17.9
    ##  5 CentralPark_NY USW00094728 2021-01-05     0   5.6   2.2 2021-01-01      17.9
    ##  6 CentralPark_NY USW00094728 2021-01-06     0   5     1.1 2021-01-01      17.9
    ##  7 CentralPark_NY USW00094728 2021-01-07     0   5    -1   2021-01-01      17.9
    ##  8 CentralPark_NY USW00094728 2021-01-08     0   2.8  -2.7 2021-01-01      17.9
    ##  9 CentralPark_NY USW00094728 2021-01-09     0   2.8  -4.3 2021-01-01      17.9
    ## 10 CentralPark_NY USW00094728 2021-01-10     0   5    -1.6 2021-01-01      17.9
    ## # ℹ 2,180 more rows
…
instead of creating a temperature rank variable just filtering
immediately. In both of these, we’ve skipped a mutate() statement that
would create a ranking variable, and gone straight to filtering based on
the result.

``` r
weather_df %>% 
  group_by(name) %>% 
  mutate(
    lagged_temp = lag(tmax)
  )
```

    ## # A tibble: 2,190 × 8
    ## # Groups:   name [3]
    ##    name           id         date        prcp  tmax  tmin month      lagged_temp
    ##    <chr>          <chr>      <date>     <dbl> <dbl> <dbl> <date>           <dbl>
    ##  1 CentralPark_NY USW000947… 2021-01-01   157   4.4   0.6 2021-01-01        NA  
    ##  2 CentralPark_NY USW000947… 2021-01-02    13  10.6   2.2 2021-01-01         4.4
    ##  3 CentralPark_NY USW000947… 2021-01-03    56   3.3   1.1 2021-01-01        10.6
    ##  4 CentralPark_NY USW000947… 2021-01-04     5   6.1   1.7 2021-01-01         3.3
    ##  5 CentralPark_NY USW000947… 2021-01-05     0   5.6   2.2 2021-01-01         6.1
    ##  6 CentralPark_NY USW000947… 2021-01-06     0   5     1.1 2021-01-01         5.6
    ##  7 CentralPark_NY USW000947… 2021-01-07     0   5    -1   2021-01-01         5  
    ##  8 CentralPark_NY USW000947… 2021-01-08     0   2.8  -2.7 2021-01-01         5  
    ##  9 CentralPark_NY USW000947… 2021-01-09     0   2.8  -4.3 2021-01-01         2.8
    ## 10 CentralPark_NY USW000947… 2021-01-10     0   5    -1.6 2021-01-01         2.8
    ## # ℹ 2,180 more rows
…
